[{"page":1,"pages":32,"per_page":50,"total":1584,"sourceid":"2","lastupdated":"2019-01-30"},[{"indicator":{"id":"NY.GDP.MKTP.CD","value":"GDP (current US$)"},"country":{"id":"1A","value":"Arab World"},"countryiso3code":"","date":"2017","value":2586310796347.12,"unit":"","obs_status":"","decimal":0},{"indicator":{"id":"NY.GDP.MKTP.CD","value":"GDP (current US$)"},"country":{"id":"1A","value":"Arab World"},"countryiso3code":"","date":"2016","value":2513935702899.65,"unit":"","obs_status":"","decimal":0},{"indicator":{"id":"NY.GDP.MKTP.CD","value":"GDP (current US$)"},"country":{"id":"1A","value":"Arab World"},"countryiso3code":"","date":"2015","value":2560753811359.54,"unit":"","obs_status":"","decimal":0},{"indicator":{"id":"NY.GDP.MKTP.CD","value":"GDP (current US$)"},"country":{"id":"1A","value":"Arab World"},"countryiso3code":"","date":"2014","value":2908394129857.66,"unit":"","obs_status":"","decimal":0},{"indicator":{"id":"NY.GDP.MKTP.CD","value":"GDP (current US$)"},"country":{"id":"1A","value":"Arab World"},"countryiso3code":"","date":"2013","value":2866861303189.56,"unit":"","obs_status":"","decimal":0},{"indicator":{"id":"NY.GDP.MKTP.CD","value":"GDP (current US$)"},"country":{"id":"1A","value":"Arab World"},"countryiso3code":"","date":"2012","value":2786787184920.6,"unit":"","obs_status":"","decimal":0},{"indicator":{"id":"NY.GDP.MKTP.CD","value":"GDP (current US$)"},"country":{"id":"S3","value":"Caribbean small states"},"countryiso3code":"","date":"2017","value":68823642409.779,"unit":"","obs_status":"","decimal":0},{"indicator":{"id":"NY.GDP.MKTP.CD","value":"GDP (current US$)"},"country":{"id":"S3","value":"Caribbean small states"},"countryiso3code":"","date":"2016","value":67665555626.4245,"unit":"","obs_status":"","decimal":0},{"indicator":{"id":"NY.GDP.MKTP.CD","value":"GDP (current US$)"},"country":{"id":"S3","value":"Caribbean small states"},"countryiso3code":"","date":"2015","value":70862033353.6265,"unit":"","obs_status":"","decimal":0},{"indicator":{"id":"NY.GDP.MKTP.CD","value":"GDP (current US$)"},"country":{"id":"S3","value":"Caribbean small states"},"countryiso3code":"","date":"2014","value":72495698044.4166,"unit":"","obs_status":"","decimal":0},{"indicator":{"id":"NY.GDP.MKTP.CD","value":"GDP (current US$)"},"country":{"id":"S3","value":"Caribbean small states"},"countryiso3code":"","date":"2013","value":71335339138.4765,"unit":"","obs_status":"","decimal":0},{"indicator":{"id":"NY.GDP.MKTP.CD","value":"GDP (current US$)"},"country":{"id":"S3","value":"Caribbean small states"},"countryiso3code":"","date":"2012","value":70588397890.6743,"unit":"","obs_status":"","decimal":0},{"indicator":{"id":"NY.GDP.MKTP.CD","value":"GDP (current US$)"},"country":{"id":"B8","value":"Central Europe and the Baltics"},"countryiso3code":"","date":"2017","value":1454536913148.29,"unit":"","obs_status":"","decimal":0},{"indicator":{"id":"NY.GDP.MKTP.CD","value":"GDP (current US$)"},"country":{"id":"B8","value":"Central Europe and the Baltics"},"countryiso3code":"","date":"2016","value":1314649428199.32,"unit":"","obs_status":"","decimal":0},{"indicator":{"id":"NY.GDP.MKTP.CD","value":"GDP (current US$)"},"country":{"id":"B8","value":"Central Europe and the Baltics"},"countryiso3code":"","date":"2015","value":1285887062843.63,"unit":"","obs_status":"","decimal":0},{"indicator":{"id":"NY.GDP.MKTP.CD","value":"GDP (current US$)"},"country":{"id":"B8","value":"Central Europe and the Baltics"},"countryiso3code":"","date":"2014","value":1464263712669.79,"unit":"","obs_status":"","decimal":0},{"indicator":{"id":"NY.GDP.MKTP.CD","value":"GDP (current US$)"},"country":{"id":"B8","value":"Central Europe and the Baltics"},"countryiso3code":"","date":"2013","value":1421875004125.78,"unit":"","obs_status":"","decimal":0},{"indicator":{"id":"NY.GDP.MKTP.CD","value":"GDP (current US$)"},"country":{"id":"B8","value":"Central Europe and the Baltics"},"countryiso3code":"","date":"2012","value":1350943595197.33,"unit":"","obs_status":"","decimal":0},{"indicator":{"id":"NY.GDP.MKTP.CD","value":"GDP (current US$)"},"country":{"id":"V2","value":"Early-demographic dividend"},"countryiso3code":"","date":"2017","value":11289478472218.9,"unit":"","obs_status":"","decimal":0},{"indicator":{"id":"NY.GDP.MKTP.CD","value":"GDP (current US$)"},"country":{"id":"V2","value":"Early-demographic dividend"},"countryiso3code":"","date":"2016","value":10478469295415.3,"unit":"","obs_status":"","decimal":0},{"indicator":{"id":"NY.GDP.MKTP.CD","value":"GDP (current US$)"},"country":{"id":"V2","value":"Early-demographic dividend"},"countryiso3code":"","date":"2015","value":10262511922399,"unit":"","obs_status":"","decimal":0},{"indicator":{"id":"NY.GDP.MKTP.CD","value":"GDP (current US$)"},"country":{"id":"V2","value":"Early-demographic dividend"},"countryiso3code":"","date":"2014","value":10579531046172.6,"unit":"","obs_status":"","decimal":0},{"indicator":{"id":"NY.GDP.MKTP.CD","value":"GDP (current US$)"},"country":{"id":"V2","value":"Early-demographic dividend"},"countryiso3code":"","date":"2013","value":10229631406072.6,"unit":"","obs_status":"","decimal":0},{"indicator":{"id":"NY.GDP.MKTP.CD","value":"GDP (current US$)"},"country":{"id":"V2","value":"Early-demographic dividend"},"countryiso3code":"","date":"2012","value":10044524034458.6,"unit":"","obs_status":"","decimal":0},{"indicator":{"id":"NY.GDP.MKTP.CD","value":"GDP (current US$)"},"country":{"id":"Z4","value":"East Asia & Pacific"},"countryiso3code":"","date":"2017","value":23996456162788.6,"unit":"","obs_status":"","decimal":0},{"indicator":{"id":"NY.GDP.MKTP.CD","value":"GDP (current US$)"},"country":{"id":"Z4","value":"East Asia & Pacific"},"countryiso3code":"","date":"2016","value":22511544018858.2,"unit":"","obs_status":"","decimal":0},{"indicator":{"id":"NY.GDP.MKTP.CD","value":"GDP (current US$)"},"country":{"id":"Z4","value":"East Asia & Pacific"},"countryiso3code":"","date":"2015","value":21795245264442.9,"unit":"","obs_status":"","decimal":0},{"indicator":{"id":"NY.GDP.MKTP.CD","value":"GDP (current US$)"},"country":{"id":"Z4","value":"East Asia & Pacific"},"countryiso3code":"","date":"2014","value":21914183151602.1,"unit":"","obs_status":"","decimal":0},{"indicator":{"id":"NY.GDP.MKTP.CD","value":"GDP (current US$)"},"country":{"id":"Z4","value":"East Asia & Pacific"},"countryiso3code":"","date":"2013","value":21275177777578.7,"unit":"","obs_status":"","decimal":0},{"indicator":{"id":"NY.GDP.MKTP.CD","value":"GDP (current US$)"},"country":{"id":"Z4","value":"East Asia & Pacific"},"countryiso3code":"","date":"2012","value":21031417537881.9,"unit":"","obs_status":"","decimal":0},{"indicator":{"id":"NY.GDP.MKTP.CD","value":"GDP (current US$)"},"country":{"id":"4E","value":"East Asia & Pacific (excluding high income)"},"countryiso3code":"","date":"2017","value":14739561923912.5,"unit":"","obs_status":"","decimal":0},{"indicator":{"id":"NY.GDP.MKTP.CD","value":"GDP (current US$)"},"country":{"id":"4E","value":"East Asia & Pacific (excluding high income)"},"countryiso3code":"","date":"2016","value":13508699275921.3,"unit":"","obs_status":"","decimal":0},{"indicator":{"id":"NY.GDP.MKTP.CD","value":"GDP (current US$)"},"country":{"id":"4E","value":"East Asia & Pacific (excluding high income)"},"countryiso3code":"","date":"2015","value":13271287745643.1,"unit":"","obs_status":"","decimal":0},{"indicator":{"id":"NY.GDP.MKTP.CD","value":"GDP (current US$)"},"country":{"id":"4E","value":"East Asia & Pacific (excluding high income)"},"countryiso3code":"","date":"2014","value":12757489858485.5,"unit":"","obs_status":"","decimal":0},{"indicator":{"id":"NY.GDP.MKTP.CD","value":"GDP (current US$)"},"country":{"id":"4E","value":"East Asia & Pacific (excluding high income)"},"countryiso3code":"","date":"2013","value":11864680965128.8,"unit":"","obs_status":"","decimal":0},{"indicator":{"id":"NY.GDP.MKTP.CD","value":"GDP (current US$)"},"country":{"id":"4E","value":"East Asia & Pacific (excluding high income)"},"countryiso3code":"","date":"2012","value":10749714204582.3,"unit":"","obs_status":"","decimal":0},{"indicator":{"id":"NY.GDP.MKTP.CD","value":"GDP (current US$)"},"country":{"id":"T4","value":"East Asia & Pacific (IDA & IBRD countries)"},"countryiso3code":"","date":"2017","value":14711297865073.7,"unit":"","obs_status":"","decimal":0},{"indicator":{"id":"NY.GDP.MKTP.CD","value":"GDP (current US$)"},"country":{"id":"T4","value":"East Asia & Pacific (IDA & IBRD countries)"},"countryiso3code":"","date":"2016","value":13482761895157.8,"unit":"","obs_status":"","decimal":0},{"indicator":{"id":"NY.GDP.MKTP.CD","value":"GDP (current US$)"},"country":{"id":"T4","value":"East Asia & Pacific (IDA & IBRD countries)"},"countryiso3code":"","date":"2015","value":13245781212588.4,"unit":"","obs_status":"","decimal":0},{"indicator":{"id":"NY.GDP.MKTP.CD","value":"GDP (current US$)"},"country":{"id":"T4","value":"East Asia & Pacific (IDA & IBRD countries)"},"countryiso3code":"","date":"2014","value":12732927119604.8,"unit":"","obs_status":"","decimal":0},{"indicator":{"id":"NY.GDP.MKTP.CD","value":"GDP (current US$)"},"country":{"id":"T4","value":"East Asia & Pacific (IDA & IBRD countries)"},"countryiso3code":"","date":"2013","value":11841791067819.2,"unit":"","obs_status":"","decimal":0},{"indicator":{"id":"NY.GDP.MKTP.CD","value":"GDP (current US$)"},"country":{"id":"T4","value":"East Asia & Pacific (IDA & IBRD countries)"},"countryiso3code":"","date":"2012","value":10728922595552.8,"unit":"","obs_status":"","decimal":0},{"indicator":{"id":"NY.GDP.MKTP.CD","value":"GDP (current US$)"},"country":{"id":"XC","value":"Euro area"},"countryiso3code":"","date":"2017","value":12589879981668,"unit":"","obs_status":"","decimal":0},{"indicator":{"id":"NY.GDP.MKTP.CD","value":"GDP (current US$)"},"country":{"id":"XC","value":"Euro area"},"countryiso3code":"","date":"2016","value":11935033021358,"unit":"","obs_status":"","decimal":0},{"indicator":{"id":"NY.GDP.MKTP.CD","value":"GDP (current US$)"},"country":{"id":"XC","value":"Euro area"},"countryiso3code":"","date":"2015","value":11667268254660.3,"unit":"","obs_status":"","decimal":0},{"indicator":{"id":"NY.GDP.MKTP.CD","value":"GDP (current US$)"},"country":{"id":"XC","value":"Euro area"},"countryiso3code":"","date":"2014","value":13478913497853.3,"unit":"","obs_status":"","decimal":0},{"indicator":{"id":"NY.GDP.MKTP.CD","value":"GDP (current US$)"},"country":{"id":"XC","value":"Euro area"},"countryiso3code":"","date":"2013","value":13193290272489.4,"unit":"","obs_status":"","decimal":0},{"indicator":{"id":"NY.GDP.MKTP.CD","value":"GDP (current US$)"},"country":{"id":"XC","value":"Euro area"},"countryiso3code":"","date":"2012","value":12641928622059.2,"unit":"","obs_status":"","decimal":0},{"indicator":{"id":"NY.GDP.MKTP.CD","value":"GDP (current US$)"},"country":{"id":"Z7","value":"Europe & Central Asia"},"countryiso3code":"","date":"2017","value":21444091703392.5,"unit":"","obs_status":"","decimal":0},{"indicator":{"id":"NY.GDP.MKTP.CD","value":"GDP (current US$)"},"country":{"id":"Z7","value":"Europe & Central Asia"},"countryiso3code":"","date":"2016","value":20283925294721.9,"unit":"","obs_status":"","decimal":0}]]